{"total_items":59,"page":1,"page_size":30,"_links":{"self":{"href":"https://api.viagogo.net/v2/search?embed=event%2Ccategory%2Cgenre%2Cvenue&query=one%20direction&page=1&page_size=30","title":null,"templated":false},"next":{"href":"https://api.viagogo.net/v2/search?embed=event%2Ccategory%2Cgenre%2Cvenue&query=one%20direction&page=2&page_size=30","title":null,"templated":false},"last":{"href":"https://api.viagogo.net/v2/search?embed=event%2Ccategory%2Cgenre%2Cvenue&query=one%20direction&page=2&page_size=30","title":null,"templated":false}},"_embedded":{"items":[{"title":"One Direction","type":"Category","type_description":"Artist","_links":{"searchresult:category":{"href":"https://api.viagogo.net/v2/categories/20746","title":null,"templated":false}},"_embedded":{"category":{"id":20746,"name":"One Direction","_links":{"self":{"href":"https://api.viagogo.net/v2/categories/20746?embed=event%2Ccategory%2Cgenre%2Cvenue&key=%2FConcert-Tickets%2FRock-and-Pop%2FOne-Direction-Tickets","title":null,"templated":false},"category:image":{"href":"http://cdn1.viagogo.net/img/cat/20746/2/1.jpg","title":null,"templated":false}}},"genre":{"id":3,"name":"Concert Tickets","_links":{"self":{"href":"https://api.viagogo.net/v2/categories/3?embed=event%2Ccategory%2Cgenre%2Cvenue&key=%2FConcert-Tickets","title":null,"templated":false},"category:image":{"href":"http://cdn1.viagogo.net/img/cat/3/1/1.jpg","title":null,"templated":false}}}}},{"title":"One Direction - 3 Arena Dublin, Dublin","type":"Event","type_description":"Event","_links":{"searchresult:event":{"href":"https://api.viagogo.net/v2/events/735159","title":null,"templated":false}},"_embedded":{"event":{"id":735159,"name":"One Direction","start_date":"2015-10-16T18:30:00+01:00","date_confirmed":true,"_links":{"self":{"href":"https://api.viagogo.net/v2/events/735159?embed=event%2Ccategory%2Cgenre%2Cvenue","title":null,"templated":false}}}}},{"title":"One Direction - 3 Arena Dublin, Dublin","type":"Event","type_description":"Event","_links":{"searchresult:event":{"href":"https://api.viagogo.net/v2/events/735160","title":null,"templated":false}},"_embedded":{"event":{"id":735160,"name":"One Direction","start_date":"2015-10-17T18:30:00+01:00","date_confirmed":true,"_links":{"self":{"href":"https://api.viagogo.net/v2/events/735160?embed=event%2Ccategory%2Cgenre%2Cvenue","title":null,"templated":false}}}}},{"title":"One Direction - 3 Arena Dublin, Dublin","type":"Event","type_description":"Event","_links":{"searchresult:event":{"href":"https://api.viagogo.net/v2/events/744808","title":null,"templated":false}},"_embedded":{"event":{"id":744808,"name":"One Direction","start_date":"2015-10-18T18:30:00+01:00","date_confirmed":true,"_links":{"self":{"href":"https://api.viagogo.net/v2/events/744808?embed=event%2Ccategory%2Cgenre%2Cvenue","title":null,"templated":false}}}}},{"title":"One Direction - Arrowhead Stadium, Kansas City","type":"Event","type_description":"Event","_links":{"searchresult:event":{"href":"https://api.viagogo.net/v2/events/714940","title":null,"templated":false}},"_embedded":{"event":{"id":714940,"name":"One Direction","start_date":"2015-07-28T19:00:00-05:00","date_confirmed":true,"_links":{"self":{"href":"https://api.viagogo.net/v2/events/714940?embed=event%2Ccategory%2Cgenre%2Cvenue","title":null,"templated":false}}}}},{"title":"One Direction - Barclaycard Arena (NIA Birmingham), Birmingham","type":"Event","type_description":"Event","_links":{"searchresult:event":{"href":"https://api.viagogo.net/v2/events/735146","title":null,"templated":false}},"_embedded":{"event":{"id":735146,"name":"One Direction","start_date":"2015-10-10T18:00:00+01:00","date_confirmed":true,"_links":{"self":{"href":"https://api.viagogo.net/v2/events/735146?embed=event%2Ccategory%2Cgenre%2Cvenue","title":null,"templated":false}}}}},{"title":"One Direction - Barclaycard Arena (NIA Birmingham), Birmingham","type":"Event","type_description":"Event","_links":{"searchresult:event":{"href":"https://api.viagogo.net/v2/events/735147","title":null,"templated":false}},"_embedded":{"event":{"id":735147,"name":"One Direction","start_date":"2015-10-11T18:00:00+01:00","date_confirmed":true,"_links":{"self":{"href":"https://api.viagogo.net/v2/events/735147?embed=event%2Ccategory%2Cgenre%2Cvenue","title":null,"templated":false}}}}},{"title":"One Direction - Barclaycard Arena (NIA Birmingham), Birmingham","type":"Event","type_description":"Event","_links":{"searchresult:event":{"href":"https://api.viagogo.net/v2/events/744812","title":null,"templated":false}},"_embedded":{"event":{"id":744812,"name":"One Direction","start_date":"2015-10-12T18:00:00+01:00","date_confirmed":true,"_links":{"self":{"href":"https://api.viagogo.net/v2/events/744812?embed=event%2Ccategory%2Cgenre%2Cvenue","title":null,"templated":false}}}}},{"title":"One Direction - BC Place Stadium, Vancouver","type":"Event","type_description":"Event","_links":{"searchresult:event":{"href":"https://api.viagogo.net/v2/events/715998","title":null,"templated":false}},"_embedded":{"event":{"id":715998,"name":"One Direction","start_date":"2015-07-17T19:00:00-07:00","date_confirmed":true,"_links":{"self":{"href":"https://api.viagogo.net/v2/events/715998?embed=event%2Ccategory%2Cgenre%2Cvenue","title":null,"templated":false}}}}},{"title":"One Direction - Canadian Tire Centre, Kanata","type":"Event","type_description":"Event","_links":{"searchresult:event":{"href":"https://api.viagogo.net/v2/events/716002","title":null,"templated":false}},"_embedded":{"event":{"id":716002,"name":"One Direction","start_date":"2015-09-08T19:00:00-04:00","date_confirmed":true,"_links":{"self":{"href":"https://api.viagogo.net/v2/events/716002?embed=event%2Ccategory%2Cgenre%2Cvenue","title":null,"templated":false}}}}},{"title":"One Direction - Canadian Tire Centre, Kanata","type":"Event","type_description":"Event","_links":{"searchresult:event":{"href":"https://api.viagogo.net/v2/events/717389","title":null,"templated":false}},"_embedded":{"event":{"id":717389,"name":"One Direction","start_date":"2015-09-09T19:00:00-04:00","date_confirmed":true,"_links":{"self":{"href":"https://api.viagogo.net/v2/events/717389?embed=event%2Ccategory%2Cgenre%2Cvenue","title":null,"templated":false}}}}},{"title":"One Direction - CASA Arena Horsens, Horsens","type":"Event","type_description":"Event","_links":{"searchresult:event":{"href":"https://api.viagogo.net/v2/events/714920","title":null,"templated":false}},"_embedded":{"event":{"id":714920,"name":"One Direction","start_date":"2015-06-16T17:00:00+02:00","date_confirmed":true,"_links":{"self":{"href":"https://api.viagogo.net/v2/events/714920?embed=event%2Ccategory%2Cgenre%2Cvenue","title":null,"templated":false}}}}},{"title":"One Direction - CenturyLink Field, Seattle","type":"Event","type_description":"Event","_links":{"searchresult:event":{"href":"https://api.viagogo.net/v2/events/714937","title":null,"templated":false}},"_embedded":{"event":{"id":714937,"name":"One Direction","start_date":"2015-07-15T19:00:00-07:00","date_confirmed":true,"_links":{"self":{"href":"https://api.viagogo.net/v2/events/714937?embed=event%2Ccategory%2Cgenre%2Cvenue","title":null,"templated":false}}}}},{"title":"One Direction - Commonwealth Stadium - Edmonton, Edmonton","type":"Event","type_description":"Event","_links":{"searchresult:event":{"href":"https://api.viagogo.net/v2/events/715999","title":null,"templated":false}},"_embedded":{"event":{"id":715999,"name":"One Direction","start_date":"2015-07-21T19:00:00-06:00","date_confirmed":true,"_links":{"self":{"href":"https://api.viagogo.net/v2/events/715999?embed=event%2Ccategory%2Cgenre%2Cvenue","title":null,"templated":false}}}}},{"title":"One Direction - Ernst Happel Stadion, Vienna","type":"Event","type_description":"Event","_links":{"searchresult:event":{"href":"https://api.viagogo.net/v2/events/714919","title":null,"templated":false}},"_embedded":{"event":{"id":714919,"name":"One Direction","start_date":"2015-06-10T15:30:00+02:00","date_confirmed":true,"_links":{"self":{"href":"https://api.viagogo.net/v2/events/714919?embed=event%2Ccategory%2Cgenre%2Cvenue","title":null,"templated":false}}}}},{"title":"One Direction - FirstEnergy Stadium, Cleveland","type":"Event","type_description":"Event","_links":{"searchresult:event":{"href":"https://api.viagogo.net/v2/events/714954","title":null,"templated":false}},"_embedded":{"event":{"id":714954,"name":"One Direction","start_date":"2015-08-27T19:00:00-04:00","date_confirmed":true,"_links":{"self":{"href":"https://api.viagogo.net/v2/events/714954?embed=event%2Ccategory%2Cgenre%2Cvenue","title":null,"templated":false}}}}},{"title":"One Direction - Ford Field, Detroit","type":"Event","type_description":"Event","_links":{"searchresult:event":{"href":"https://api.viagogo.net/v2/events/714956","title":null,"templated":false}},"_embedded":{"event":{"id":714956,"name":"One Direction","start_date":"2015-08-29T19:00:00-04:00","date_confirmed":true,"_links":{"self":{"href":"https://api.viagogo.net/v2/events/714956?embed=event%2Ccategory%2Cgenre%2Cvenue","title":null,"templated":false}}}}},{"title":"One Direction - Gillette Stadium, Foxborough","type":"Event","type_description":"Event","_links":{"searchresult:event":{"href":"https://api.viagogo.net/v2/events/714960","title":null,"templated":false}},"_embedded":{"event":{"id":714960,"name":"One Direction","start_date":"2015-09-12T19:00:00-04:00","date_confirmed":true,"_links":{"self":{"href":"https://api.viagogo.net/v2/events/714960?embed=event%2Ccategory%2Cgenre%2Cvenue","title":null,"templated":false}}}}},{"title":"One Direction - Heinz Field, Pittsburgh","type":"Event","type_description":"Event","_links":{"searchresult:event":{"href":"https://api.viagogo.net/v2/events/714941","title":null,"templated":false}},"_embedded":{"event":{"id":714941,"name":"One Direction","start_date":"2015-08-02T19:00:00-04:00","date_confirmed":true,"_links":{"self":{"href":"https://api.viagogo.net/v2/events/714941?embed=event%2Ccategory%2Cgenre%2Cvenue","title":null,"templated":false}}}}},{"title":"One Direction - Hydro, Glasgow","type":"Event","type_description":"Event","_links":{"searchresult:event":{"href":"https://api.viagogo.net/v2/events/735144","title":null,"templated":false}},"_embedded":{"event":{"id":735144,"name":"One Direction","start_date":"2015-10-07T18:00:00+01:00","date_confirmed":true,"_links":{"self":{"href":"https://api.viagogo.net/v2/events/735144?embed=event%2Ccategory%2Cgenre%2Cvenue","title":null,"templated":false}}}}},{"title":"One Direction - Hydro, Glasgow","type":"Event","type_description":"Event","_links":{"searchresult:event":{"href":"https://api.viagogo.net/v2/events/735145","title":null,"templated":false}},"_embedded":{"event":{"id":735145,"name":"One Direction","start_date":"2015-10-08T18:00:00+01:00","date_confirmed":true,"_links":{"self":{"href":"https://api.viagogo.net/v2/events/735145?embed=event%2Ccategory%2Cgenre%2Cvenue","title":null,"templated":false}}}}},{"title":"One Direction - Investors Group Field, Winnipeg","type":"Event","type_description":"Event","_links":{"searchresult:event":{"href":"https://api.viagogo.net/v2/events/716000","title":null,"templated":false}},"_embedded":{"event":{"id":716000,"name":"One Direction","start_date":"2015-07-24T19:00:00-05:00","date_confirmed":true,"_links":{"self":{"href":"https://api.viagogo.net/v2/events/716000?embed=event%2Ccategory%2Cgenre%2Cvenue","title":null,"templated":false}}}}},{"title":"One Direction - King Baudouin Stadium, Brussels","type":"Event","type_description":"Event","_links":{"searchresult:event":{"href":"https://api.viagogo.net/v2/events/714923","title":null,"templated":false}},"_embedded":{"event":{"id":714923,"name":"One Direction","start_date":"2015-06-13T20:30:00+02:00","date_confirmed":true,"_links":{"self":{"href":"https://api.viagogo.net/v2/events/714923?embed=event%2Ccategory%2Cgenre%2Cvenue","title":null,"templated":false}}}}},{"title":"One Direction - Levi's Stadium, Santa Clara","type":"Event","type_description":"Event","_links":{"searchresult:event":{"href":"https://api.viagogo.net/v2/events/714934","title":null,"templated":false}},"_embedded":{"event":{"id":714934,"name":"One Direction","start_date":"2015-07-11T19:00:00-07:00","date_confirmed":true,"_links":{"self":{"href":"https://api.viagogo.net/v2/events/714934?embed=event%2Ccategory%2Cgenre%2Cvenue","title":null,"templated":false}}}}},{"title":"One Direction - Lincoln Financial Field, Philadelphia","type":"Event","type_description":"Event","_links":{"searchresult:event":{"href":"https://api.viagogo.net/v2/events/714957","title":null,"templated":false}},"_embedded":{"event":{"id":714957,"name":"One Direction","start_date":"2015-09-01T19:00:00-04:00","date_confirmed":true,"_links":{"self":{"href":"https://api.viagogo.net/v2/events/714957?embed=event%2Ccategory%2Cgenre%2Cvenue","title":null,"templated":false}}}}},{"title":"One Direction - Lucas Oil Stadium, Indianapolis","type":"Event","type_description":"Event","_links":{"searchresult:event":{"href":"https://api.viagogo.net/v2/events/714942","title":null,"templated":false}},"_embedded":{"event":{"id":714942,"name":"One Direction","start_date":"2015-07-31T19:00:00-04:00","date_confirmed":true,"_links":{"self":{"href":"https://api.viagogo.net/v2/events/714942?embed=event%2Ccategory%2Cgenre%2Cvenue","title":null,"templated":false}}}}},{"title":"One Direction - M&T Bank Stadium, Baltimore","type":"Event","type_description":"Event","_links":{"searchresult:event":{"href":"https://api.viagogo.net/v2/events/714945","title":null,"templated":false}},"_embedded":{"event":{"id":714945,"name":"One Direction","start_date":"2015-08-08T19:00:00-04:00","date_confirmed":true,"_links":{"self":{"href":"https://api.viagogo.net/v2/events/714945?embed=event%2Ccategory%2Cgenre%2Cvenue","title":null,"templated":false}}}}},{"title":"One Direction - MetLife Stadium, East Rutherford","type":"Event","type_description":"Event","_links":{"searchresult:event":{"href":"https://api.viagogo.net/v2/events/714943","title":null,"templated":false}},"_embedded":{"event":{"id":714943,"name":"One Direction","start_date":"2015-08-05T19:00:00-04:00","date_confirmed":true,"_links":{"self":{"href":"https://api.viagogo.net/v2/events/714943?embed=event%2Ccategory%2Cgenre%2Cvenue","title":null,"templated":false}}}}},{"title":"One Direction - Metro Radio Arena, Newcastle upon Tyne","type":"Event","type_description":"Event","_links":{"searchresult:event":{"href":"https://api.viagogo.net/v2/events/735148","title":null,"templated":false}},"_embedded":{"event":{"id":735148,"name":"One Direction","start_date":"2015-10-25T18:00:00+00:00","date_confirmed":true,"_links":{"self":{"href":"https://api.viagogo.net/v2/events/735148?embed=event%2Ccategory%2Cgenre%2Cvenue","title":null,"templated":false}}}}},{"title":"One Direction - Metro Radio Arena, Newcastle upon Tyne","type":"Event","type_description":"Event","_links":{"searchresult:event":{"href":"https://api.viagogo.net/v2/events/735149","title":null,"templated":false}},"_embedded":{"event":{"id":735149,"name":"One Direction","start_date":"2015-10-26T18:00:00+00:00","date_confirmed":true,"_links":{"self":{"href":"https://api.viagogo.net/v2/events/735149?embed=event%2Ccategory%2Cgenre%2Cvenue","title":null,"templated":false}}}}}]}}